%YAML 1.1
%TAG !u! tag:unity3d.com,2011:
--- !u!1 &9047211958822565116
GameObject:
  m_ObjectHideFlags: 0
  m_CorrespondingSourceObject: {fileID: 0}
  m_PrefabInstance: {fileID: 0}
  m_PrefabAsset: {fileID: 0}
  serializedVersion: 6
  m_Component:
  - component: {fileID: 9047211958822565118}
  - component: {fileID: 9047211958822565119}
  m_Layer: 0
  m_Name: StickyGameManager
  m_TagString: Untagged
  m_Icon: {fileID: 0}
  m_NavMeshLayer: 0
  m_StaticEditorFlags: 0
  m_IsActive: 1
--- !u!4 &9047211958822565118
Transform:
  m_ObjectHideFlags: 0
  m_CorrespondingSourceObject: {fileID: 0}
  m_PrefabInstance: {fileID: 0}
  m_PrefabAsset: {fileID: 0}
  m_GameObject: {fileID: 9047211958822565116}
  m_LocalRotation: {x: 0, y: 0, z: 0, w: 1}
  m_LocalPosition: {x: 1.4391325, y: 2.6154845, z: -0.4591074}
  m_LocalScale: {x: 1, y: 1, z: 1}
  m_Children: []
  m_Father: {fileID: 0}
  m_RootOrder: 0
  m_LocalEulerAnglesHint: {x: 0, y: 0, z: 0}
--- !u!114 &9047211958822565119
MonoBehaviour:
  m_ObjectHideFlags: 0
  m_CorrespondingSourceObject: {fileID: 0}
  m_PrefabInstance: {fileID: 0}
  m_PrefabAsset: {fileID: 0}
  m_GameObject: {fileID: 9047211958822565116}
  m_Enabled: 1
  m_EditorHideFlags: 0
  m_Script: {fileID: 11500000, guid: 76943dffc7873401c8a831292f69fd9c, type: 3}
  m_Name: 
  m_EditorClassIdentifier: 
  ThrowablesHierarchy: {fileID: 0}
  LosePlane: {fileID: 0}
  WinPlane: {fileID: 0}
  totalScore: 
  ballsLost: 
  realTime: 
  thisLevelName: 
  nextLevel: 
  stickySecStartSmall: 3
  stickySecStartBig: 5
  winningScore: 30
  ballsLostRaw: 0
  lostBallPenalty: 0
  thisLevelIndex: 0
  startingThrowables: 0
  totalScoreRaw: 0
  bigBallScore: 0
  bigCubeScore: 0
  bigCylinderScore: 0
  bigPyramidScore: 0
  smallBallScore: 0
  smallCubeScore: 0
  smallCylinderScore: 0
  smallPyramidScore: 0
  realTimeRaw: 0
  paused: 0
  WinCondition: 0
  LoseCondition: 0
  HighScoreLevel: 0
  LevelLevels: 0
